<svg xmlns="http://www.w3.org/2000/svg" width="24" height="20" viewBox="0 0 24 20">
  <path id="Shape" d="M3,20a1,1,0,0,1-1-1V7H1A1,1,0,0,1,0,6V1A1,1,0,0,1,1,0H23a1,1,0,0,1,1,1V6a1,1,0,0,1-1,1H22V19a1,1,0,0,1-1,1Zm1-2H20V7H4ZM22,5V2H2V5H22ZM10,11a1,1,0,0,1,0-2h4a1,1,0,0,1,0,2Z"/>
</svg>
