<svg xmlns="http://www.w3.org/2000/svg" width="12" height="12" viewBox="0 0 12 12">
  <path id="Shape" d="M10.293,11.707,2,3.414V11a1,1,0,0,1-2,0V1A1,1,0,0,1,.082.6v0L.091.582.1.574.1.562.107.548l0-.006L.121.523h0a1,1,0,0,1,.4-.4h0L.542.111l.006,0L.562.1.574.1l.008,0L.6.083h0A1,1,0,0,1,1,0H11a1,1,0,0,1,0,2H3.414l8.293,8.294a1,1,0,1,1-1.414,1.414Z"/>
</svg>
