<svg xmlns="http://www.w3.org/2000/svg" width="16" height="16" viewBox="0 0 16 16">
  <path id="Shape" d="M7.293,15.707a1,1,0,0,1,0-1.414L12.586,9H1A1,1,0,1,1,1,7H12.586L7.293,1.707A1,1,0,0,1,8.708.293l7,7a1,1,0,0,1,0,1.423l-7,7a1,1,0,0,1-1.415,0Z" transform="translate(0 0)"/>
</svg>
