<svg xmlns="http://www.w3.org/2000/svg" width="24" height="14" viewBox="0 0 24 14">
  <path id="Shape" d="M3,14a3,3,0,0,1-3-3V3A3,3,0,0,1,3,0H17a3,3,0,0,1,3,3v8a3,3,0,0,1-3,3ZM2,3v8a1,1,0,0,0,1,1H17a1,1,0,0,0,1-1V3a1,1,0,0,0-1-1H3A1,1,0,0,0,2,3ZM22,8V6a1,1,0,0,1,2,0V8a1,1,0,0,1-2,0Z"/>
</svg>
