<svg xmlns="http://www.w3.org/2000/svg" width="18" height="18" viewBox="0 0 18 18">
  <path id="Shape" d="M1,18a1,1,0,1,1,0-2H8a3,3,0,0,0,3-3V3.414L7.707,6.707A1,1,0,1,1,6.293,5.293l5-5A1,1,0,0,1,12.375.073l0,0L12.4.081l.01,0,.011,0L12.43.1l0,0,.02.01h0a1,1,0,0,1,.252.183l5,5a1,1,0,1,1-1.415,1.414L13,3.414V13a5,5,0,0,1-5,5Z"/>
</svg>
