<svg xmlns="http://www.w3.org/2000/svg" width="22" height="22" viewBox="0 0 22 22">
  <path id="Shape" d="M3.222,18.778A11,11,0,1,1,18.778,3.222,11,11,0,1,1,3.222,18.778ZM2,11a9,9,0,1,0,9-9A9.01,9.01,0,0,0,2,11Zm5,0a4,4,0,1,1,4,4A4,4,0,0,1,7,11Zm2,0a2,2,0,1,0,2-2A2,2,0,0,0,9,11Z" transform="translate(0 0)"/>
</svg>
