<svg id="feather-icon_arrow-right" data-name="feather-icon/arrow-right" xmlns="http://www.w3.org/2000/svg" width="22" height="22" viewBox="0 0 22 22">
  <rect id="Bounding_Box" data-name="Bounding Box" width="22" height="22" fill="rgba(255,255,255,0)"/>
  <path id="Shape" d="M10.5,2.069l.323-.323a5.96,5.96,0,1,1,8.428,8.428l-8.1,8.1a.917.917,0,0,1-1.3,0l-8.1-8.1a5.96,5.96,0,0,1,8.428-8.428Z" transform="translate(0.503 1.832)" fill="#fff"/>
</svg>
